<svg width="32" height="32" viewBox="0 0 32 32" fill="none" xmlns="http://www.w3.org/2000/svg">
<path d="M14.1032 7.3295C14.5371 6.89017 15.2406 6.89017 15.6746 7.3295C16.1085 7.76884 16.1085 8.48116 15.6746 8.9205L9.79333 14.875H24.8889C25.4587 14.875 25.9283 15.3093 25.9925 15.8688L26 16C26 16.6213 25.5025 17.125 24.8889 17.125H9.79333L15.6746 23.0795C16.0751 23.485 16.1059 24.1232 15.767 24.5645L15.6746 24.6705C15.2406 25.1098 14.5371 25.1098 14.1032 24.6705L6.32544 16.7955L6.2441 16.7036C6.24152 16.7004 6.23897 16.6971 6.23643 16.6938C6.23032 16.6861 6.22417 16.6779 6.21815 16.6697C6.19832 16.6425 6.17969 16.6146 6.1623 16.5857C6.15401 16.5722 6.14611 16.5584 6.13852 16.5446C6.12644 16.5223 6.11486 16.4994 6.10406 16.476C6.0952 16.4569 6.08689 16.4374 6.07914 16.4178C6.07035 16.3955 6.06236 16.3733 6.05505 16.3507C6.0497 16.334 6.04455 16.3166 6.03983 16.2992C6.03315 16.275 6.02738 16.2506 6.02241 16.2259C6.01856 16.2063 6.01514 16.1867 6.01224 16.167C6.00418 16.1129 6 16.0569 6 16L6.00441 16.1004C6.00211 16.0742 6.00071 16.048 6.00021 16.0218L6 16C6 15.9928 6.00007 15.9856 6.0002 15.9784C6.00067 15.9527 6.00207 15.9261 6.00441 15.8996C6.00641 15.8764 6.00901 15.8543 6.01224 15.8324C6.01514 15.8133 6.01856 15.7937 6.02249 15.7742C6.02738 15.7494 6.03315 15.725 6.03969 15.7009C6.04455 15.6834 6.0497 15.666 6.05526 15.6488C6.06236 15.6267 6.07035 15.6045 6.079 15.5826C6.08689 15.5626 6.0952 15.5431 6.10408 15.5239C6.11486 15.5006 6.12644 15.4777 6.13875 15.4552C6.14611 15.4416 6.15401 15.4278 6.16222 15.4142C6.17969 15.3854 6.19832 15.3575 6.21813 15.3304C6.25035 15.2864 6.28611 15.2443 6.32544 15.2045L6.23643 15.3062C6.26408 15.2705 6.29381 15.2365 6.32544 15.2045L14.1032 7.3295Z" fill="#3F8AE0"/>
</svg>
