<svg width="22" height="22" viewBox="0 0 22 22" fill="none" xmlns="http://www.w3.org/2000/svg">
<path d="M2.48148 15.8148L17.2963 1L21 4.7037L6.18518 19.5185M2.48148 15.8148L1 21L6.18518 19.5185M2.48148 15.8148L6.18518 19.5185M14.3333 3.96296L18.037 7.66667" stroke="black" stroke-width="1.2" stroke-linecap="round" stroke-linejoin="round"/>
</svg>
