<svg width="18" height="19" viewBox="0 0 18 19" fill="none" xmlns="http://www.w3.org/2000/svg">
<path d="M15.0625 5.70313L14.32 4.83934C13.6904 4.17811 12.9329 3.65189 12.0936 3.2927C11.2542 2.93351 10.3505 2.74887 9.4375 2.75001C5.71094 2.75001 2.6875 5.77344 2.6875 9.50001C2.6875 13.2266 5.71094 16.25 9.4375 16.25C10.8336 16.2499 12.1953 15.8172 13.3353 15.0113C14.4752 14.2054 15.3375 13.0661 15.8032 11.75" stroke="#0080FF" stroke-width="1.5" stroke-miterlimit="10" stroke-linecap="round"/>
<path d="M17 2.92333V6.79988C17 6.94864 16.9409 7.0913 16.8357 7.19649C16.7305 7.30168 16.5878 7.36078 16.4391 7.36078H12.5623C12.0623 7.36078 11.812 6.75676 12.1654 6.40339L16.0425 2.52649C16.3959 2.17242 17 2.42343 17 2.92333Z" fill="#0080FF"/>
</svg>
